{
  "project_info": {
    "project_number": "732021834874",
    "project_id": "binar-ch5-96076",
    "storage_bucket": "binar-ch5-96076.appspot.com"
  },
  "client": [
    {
      "client_info": {
        "mobilesdk_app_id": "1:732021834874:android:3a86d9b7e9f5ff507da7c3",
        "android_client_info": {
          "package_name": "com.practice.challenge_5"
        }
      },
      "oauth_client": [],
      "api_key": [
        {
          "current_key": "AIzaSyAc0SAdC_Ff7aIAswBgw45vyzZImeHrPA8"
        }
      ],
      "services": {
        "appinvite_service": {
          "other_platform_oauth_client": []
        }
      }
    }
  ],
  "configuration_version": "1"
}